executionId,orderId,execQty,execPrice
VLX201811052105,VLX201811051978,1484,27.77
VLX201811052176,VLX201811051826,168,115.8
VLX201811052259,VLX201811052076,14,74.21
VLX201811052152,VLX201811051936,313,286.3
VLX201811052168,VLX201811051616,7059,6.84
VLX201811052285,VLX201811051724,462,206.8
VLX201811052223,VLX201811051808,1008,4648
VLX201811052464,VLX201811051052,644,582
VLX201811052162,VLX201811051603,847,613
VLX201811052163,VLX201811051869,2320,11.64
VLX201811052161,VLX201811051717,245,239.8
VLX201811052151,VLX201811051800,2010,228.8
VLX201811052487,VLX20181105563,2116,218.9
VLX201811052300,VLX201811051790,1020,4500
VLX201811052095,VLX201811051866,1729,51.4
VLX201811052407,VLX201811052357,2302,1469
VLX201811052272,VLX201811051652,715,111.2
VLX201811052263,VLX201811052051,19,118.8
VLX201811052425,VLX201811052365,52,7130
VLX201811052472,VLX201811052380,1579,725
VLX201811052351,VLX20181105328,684,1705
VLX201811052254,VLX201811051798,290,136.9
VLX201811052226,VLX201811051825,965,77.75
VLX201811052527,VLX20181105255,7556,645
VLX201811052337,VLX20181105191,567,867
VLX201811052239,VLX201811051719,981,102.3
VLX201811052256,VLX201811051774,7438,13.63
VLX201811052332,VLX201811052008,21,187.2
VLX201811052267,VLX201811052122,870,139.9
VLX201811052261,VLX201811051830,3757,802
VLX201811052476,VLX201811052369,259,1883
VLX201811052311,VLX201811052041,6565,3.02
VLX201811051982,VLX201811051709,1610,46.59
VLX201811052302,VLX201811051741,1035,2092
VLX201811052032,VLX201811051765,697,66.73
VLX201811052280,VLX201811051637,2400,27.89
VLX201811052197,VLX201811051795,1034,53.63
VLX201811052100,VLX201811051916,19224,194.3
VLX201811052459,VLX201811052384,1301,4122
VLX201811052091,VLX201811051657,125,185.6
VLX201811052179,VLX201811051815,1748,2632
VLX201811052104,VLX201811051772,1118,78.2
VLX201811052290,VLX201811052085,1540,3234
VLX201811052111,VLX201811051875,1462,434.6
VLX201811052232,VLX201811052064,560,22200
VLX201811052394,VLX201811052358,567,321.4
VLX201811052525,VLX20181105904,323,1490
VLX201811051929,VLX201811051856,2257,3090
VLX201811052101,VLX201811051896,368,168.2
VLX201811052111,VLX201811051682,1462,434.6
VLX201811052458,VLX201811052379,83,5770
VLX201811052461,VLX201811052363,48990,59.5
VLX201811051986,VLX201811051680,13680,687
VLX201811052315,VLX201811052078,286,102.3
VLX201811052296,VLX201811052024,704,126
VLX201811052477,VLX201811051084,1345,1627
VLX201811052470,VLX201811052359,401,420.7
VLX201811052517,VLX20181105717,392,814
VLX201811052282,VLX201811051618,1665,3245
VLX201811051982,VLX201811051855,1610,46.59
VLX201811052231,VLX201811051998,500,192.8
VLX201811052147,VLX201811051769,1493,3840
VLX201811052473,VLX201811052354,87,639
VLX201811052032,VLX201811051883,697,66.73
VLX201811052519,VLX201811052414,69,3415
VLX201811052500,VLX201811052450,3616,579
VLX201811052476,VLX20181105637,259,1883
VLX201811052226,VLX201811051989,965,77.75
VLX201811052139,VLX201811051813,1230,15.52
VLX201811052511,VLX201811052439,426,402.6
VLX201811052115,VLX201811051766,471,192.1
VLX201811052284,VLX201811051993,1931,2328
VLX201811052171,VLX201811051755,180,421.8
VLX201811052350,VLX20181105102,1145,613
VLX201811052292,VLX201811052080,7030,1886
VLX201811052213,VLX201811051598,747,126.2
VLX201811052191,VLX201811051977,935,65.94
VLX201811052168,VLX201811051917,7059,6.84
VLX201811052324,VLX201811051632,330,181.7
VLX201811052530,VLX201811052431,1287,177.6
VLX201811052465,VLX201811052373,449,757
VLX201811052154,VLX201811051885,438,234.2
VLX201811052113,VLX201811051609,624,69.44
VLX201811052263,VLX201811051793,19,118.8
VLX201811052233,VLX201811051792,630,207.5
VLX201811052310,VLX201811052016,744,145.6
VLX201811052502,VLX2018110544,721,1542
VLX201811052094,VLX201811051714,8360,64.55
VLX201811051860,VLX201811051775,266,95.59
VLX201811052321,VLX201811052049,260,6240
VLX201811052328,VLX201811051785,4871,209.1
VLX201811052240,VLX201811051739,223,154.8
VLX201811052304,VLX201811051590,625,151.6
VLX201811052251,VLX201811051729,137734,59.5
VLX201811052533,VLX2018110530,684,841
VLX201811052278,VLX201811052006,406,3316
VLX201811051857,VLX201811051820,960,79.57
VLX201811052279,VLX201811051738,707,33.84
VLX201811052481,VLX20181105961,153,3075
VLX201811052172,VLX201811051675,2537,24.89
VLX201811052494,VLX201811052435,96,1908
VLX201811052274,VLX201811052132,864,57.73
VLX201811052325,VLX201811051734,405,148.7
VLX201811052188,VLX201811051900,16782,4.36
VLX201811052347,VLX20181105152,3055,252.2
VLX201811052496,VLX201811052451,213,1343
VLX201811052265,VLX201811052129,572,12900
VLX201811052506,VLX201811052434,600,366
VLX201811052246,VLX201811051828,1934,25.19
VLX201811052427,VLX201811051210,158,1236
VLX201811052150,VLX201811051945,504,261
VLX201811052099,VLX201811051868,1411,47.63
VLX201811051985,VLX201811051594,384,115.3
VLX201811052348,VLX201811052341,565,579
VLX201811052163,VLX201811051749,2320,11.64
VLX201811052266,VLX201811051816,693,108.4
VLX201811052175,VLX201811051627,1793,25.26
VLX201811052236,VLX201811051778,924,4333
VLX201811052103,VLX201811051811,432,67.85
VLX201811052348,VLX20181105131,565,579
VLX201811052177,VLX201811051975,126,180.1
VLX201811052283,VLX201811051759,701,138.2
VLX201811051927,VLX201811051831,882,70.2
VLX201811052225,VLX201811051695,336,17300
VLX201811052227,VLX201811052062,1224,2558
VLX201811052318,VLX201811051771,169,150.3
VLX201811052087,VLX201811051899,288,176.9
VLX201811052277,VLX201811051672,422,198
VLX201811052421,VLX20181105298,209,219.7
VLX201811052313,VLX201811051660,1,26.4
VLX201811051931,VLX201811051858,3191,20.16
VLX201811052428,VLX201811051095,1463,3840
VLX201811052325,VLX201811052056,405,148.7
VLX201811052349,VLX20181105570,1923,245.9
VLX201811052530,VLX201811051437,1287,177.6
VLX201811052250,VLX201811052023,150,409.9
VLX201811052529,VLX201811052415,15,5270
VLX201811052269,VLX201811052124,1320,4272
VLX201811052182,VLX201811051622,990,33.02
VLX201811052020,VLX201811051959,47,62.56
VLX201811052279,VLX201811052011,707,33.84
VLX201811052150,VLX201811051751,504,261
VLX201811052301,VLX201811051658,885,91.43
VLX201811052504,VLX201811052399,474,1359
VLX201811052469,VLX201811051453,344,2366
VLX201811052523,VLX201811052443,1266,319.4
VLX201811052501,VLX201811051288,807,1812
VLX201811052278,VLX201811051651,406,3316
VLX201811052499,VLX20181105986,240,2374
VLX201811052526,VLX20181105195,303,1885
VLX201811051860,VLX201811051841,266,95.59
VLX201811052159,VLX201811051974,252,34400
VLX201811052270,VLX201811052039,2382,82.25
VLX201811052259,VLX201811051613,14,74.21
VLX201811052216,VLX201811051817,20709,268.3
VLX201811052142,VLX201811051956,9345,81.82
VLX201811052425,VLX201811051265,52,7130
VLX201811052242,VLX201811051686,414,7870
VLX201811052304,VLX201811052125,625,151.6
VLX201811052112,VLX201811051891,1120,83.53
VLX201811052517,VLX201811052416,392,814
VLX201811052332,VLX201811051708,21,187.2
VLX201811052464,VLX201811052362,644,582
VLX201811052138,VLX201811051740,1472,52.92
VLX201811052099,VLX201811051690,1411,47.63
VLX201811052480,VLX20181105758,1899,315.7
VLX201811052211,VLX201811051890,3573,1489
VLX201811052148,VLX201811051942,650,5800
VLX201811052264,VLX201811052000,348,2.09
VLX201811052200,VLX201811051600,2204,1543
VLX201811052424,VLX201811052367,247,498.3
VLX201811052212,VLX201811051953,132,101.4
VLX201811052462,VLX201811052377,543,6620
VLX201811052156,VLX201811051955,874,18.63
VLX201811052297,VLX201811052131,130,215
VLX201811052465,VLX201811051024,449,757
VLX201811052200,VLX201811051970,2204,1543
VLX201811052317,VLX201811052057,4058,923
VLX201811052413,VLX201811052361,189,1308
VLX201811052210,VLX201811051780,117,76.03
VLX201811051928,VLX201811051846,522,177.2
VLX201811052428,VLX201811052378,1463,3840
VLX201811052195,VLX201811051639,271,43600
VLX201811052205,VLX201811051797,95,73.1
VLX201811052198,VLX201811051691,912,76.59
VLX201811052258,VLX201811052022,1312,1175
VLX201811052503,VLX201811052404,228,5200
VLX201811052224,VLX201811052055,176,129.9
VLX201811052239,VLX201811052031,981,102.3
VLX201811052426,VLX201811052389,150,4272
VLX201811052495,VLX20181105638,1893,2631
VLX201811052504,VLX20181105786,474,1359
VLX201811052201,VLX201811051937,7695,9.27
VLX201811051854,VLX201811051843,66,63.33
VLX201811052143,VLX201811051880,773,1638
VLX201811052296,VLX201811051636,704,126
VLX201811051981,VLX201811051849,1002,94.91
VLX201811052161,VLX201811051949,245,239.8
VLX201811052308,VLX201811052036,260,106.3
VLX201811052302,VLX201811052061,1035,2092
VLX201811052406,VLX20181105114,312,4279
VLX201811052165,VLX201811051768,285,63.67
VLX201811052479,VLX201811052376,619,966
VLX201811052106,VLX201811051612,45,23400
VLX201811052515,VLX201811052418,855,853
VLX201811052489,VLX201811051017,320,1884
VLX201811052459,VLX201811051343,1301,4122
VLX201811052284,VLX201811051671,1931,2328
VLX201811052218,VLX201811051760,2251,46.66
VLX201811052324,VLX201811052083,330,181.7
VLX201811052123,VLX201811051634,826,75200
VLX201811052248,VLX201811051641,1733,68.75
VLX201811052241,VLX201811051662,10528,579
VLX201811052463,VLX201811051311,165,1160
VLX201811052138,VLX201811051961,1472,52.92
VLX201811052170,VLX201811051884,1,140.9
VLX201811052153,VLX201811051599,2700,30.52
VLX201811052514,VLX201811052433,114,337.5
VLX201811052486,VLX201811052446,4116,802
VLX201811052282,VLX201811052053,1665,3245
VLX201811052305,VLX201811052073,950,47.13
VLX201811052480,VLX201811052387,1899,315.7
VLX201811052322,VLX201811051787,884,5690
VLX201811052217,VLX201811051990,3152,14.6
VLX201811052320,VLX201811051789,1783,218.9
VLX201811052209,VLX201811051711,525,163.2
VLX201811052293,VLX201811051722,2880,4428
VLX201811052164,VLX201811051773,3162,14.48
VLX201811052250,VLX201811051736,150,409.9
VLX201811052496,VLX20181105634,213,1343
VLX201811051926,VLX201811051861,814,46.44
VLX201811052203,VLX201811051664,3066,1876
VLX201811052490,VLX20181105161,191,4184
VLX201811052185,VLX201811051879,12262,4.21
VLX201811052170,VLX201811051638,1,140.9
VLX201811052206,VLX201811051943,500,28.18
VLX201811052096,VLX201811051744,289,111.5
VLX201811052180,VLX201811051827,833,32.95
VLX201811052248,VLX201811052045,1733,68.75
VLX201811052412,VLX201811052391,2342,167.9
VLX201811052197,VLX201811051892,1034,53.63
VLX201811052089,VLX201811051938,948,69.75
VLX201811052306,VLX201811051615,1764,5510
VLX201811052199,VLX201811051944,21228,315.7
VLX201811052424,VLX201811051525,247,498.3
VLX201811052262,VLX201811052025,1302,4932
VLX201811052240,VLX201811052126,223,154.8
VLX201811052349,VLX201811052342,1923,245.9
VLX201811052183,VLX201811051783,7032,79.72
VLX201811052507,VLX20181105156,814,1196
VLX201811052095,VLX201811051608,1729,51.4
VLX201811052313,VLX201811052069,1,26.4
VLX201811051930,VLX201811051850,231,150.3
VLX201811052532,VLX201811052410,5037,268.2
VLX201811052315,VLX201811051822,286,102.3
VLX201811052351,VLX201811052340,684,1705
VLX201811052215,VLX201811052042,3339,27.44
VLX201811051930,VLX201811051726,231,150.3
VLX201811052326,VLX201811051995,517,114.7
VLX201811052033,VLX201811051804,1185,77.95
VLX201811052208,VLX201811051725,138,202.9
VLX201811052202,VLX201811051973,1001,103.8
VLX201811052475,VLX201811052383,832,610
VLX201811052245,VLX201811051786,756,101.8
VLX201811052323,VLX201811051824,930,101.5
VLX201811052258,VLX201811051601,1312,1175
VLX201811052307,VLX201811051754,1598,36.03
VLX201811052297,VLX201811051703,130,215
VLX201811052196,VLX201811051887,2610,2858
VLX201811052020,VLX201811051699,47,62.56
VLX201811052141,VLX201811051901,80,89.83
VLX201811052522,VLX201811052440,1497,278.8
VLX201811052287,VLX201811052128,554,83.88
VLX201811052186,VLX201811051730,3298,3539
VLX201811052238,VLX201811052108,48,1070
VLX201811052281,VLX201811052015,2773,11.57
VLX201811052189,VLX201811051821,360,1769
VLX201811052159,VLX201811051602,252,34400
VLX201811052393,VLX20181105981,74,2582
VLX201811052207,VLX201811051667,1054,87.5
VLX201811052092,VLX201811051946,3181,12.43
VLX201811052227,VLX201811051805,1224,2558
VLX201811052094,VLX201811051976,8360,64.55
VLX201811052352,VLX201811052343,4,2011
VLX201811052192,VLX201811051837,2438,3235
VLX201811052217,VLX201811051621,3152,14.6
VLX201811052312,VLX201811052052,1143,11.81
VLX201811052536,VLX201811052420,57,7650
VLX201811052515,VLX201811051345,855,853
VLX201811052320,VLX201811052029,1783,218.9
VLX201811052487,VLX201811052467,2116,218.9
VLX201811052181,VLX201811051965,3888,14.32
VLX201811052147,VLX201811051898,1493,3840
VLX201811052492,VLX201811052448,91,3627
VLX201811052181,VLX201811051814,3888,14.32
VLX201811052481,VLX201811052382,153,3075
VLX201811052245,VLX201811051996,756,101.8
VLX201811052535,VLX20181105475,189,4751
VLX201811052423,VLX201811051426,1163,488.1
VLX201811052298,VLX201811051643,1469,4507
VLX201811052184,VLX201811051912,237,357.8
VLX201811052213,VLX201811051909,747,126.2
VLX201811052344,VLX201811052338,12204,149.9
VLX201811052174,VLX201811051633,2088,37.67
VLX201811052534,VLX20181105367,1017,613
VLX201811052524,VLX201811052449,720,449.5
VLX201811052331,VLX201811052034,1014,225.2
VLX201811052154,VLX201811051747,438,234.2
VLX201811052243,VLX201811051644,1164,106
VLX201811052171,VLX201811051934,180,421.8
VLX201811052471,VLX201811052385,70,879
VLX201811052096,VLX201811051963,289,111.5
VLX201811052330,VLX201811051992,3185,9.29
VLX201811051987,VLX201811051731,1617,645
VLX201811052136,VLX201811051873,608,50.71
VLX201811052469,VLX201811052370,344,2366
VLX201811052157,VLX201811051907,985,82.6
VLX201811052352,VLX20181105858,4,2011
VLX201811052257,VLX201811051794,162,33.16
VLX201811052233,VLX201811052002,630,207.5
VLX201811052288,VLX201811051762,1624,48
VLX201811052173,VLX201811051922,4931,12.38
VLX201811052114,VLX201811051802,990,60.29
VLX201811052495,VLX201811052466,1893,2631
VLX201811052264,VLX201811051716,348,2.09
VLX201811052288,VLX201811052079,1624,48
VLX201811052155,VLX201811051921,6336,7.08
VLX201811052172,VLX201811051920,2537,24.89
VLX201811051980,VLX201811051864,575,111.5
VLX201811052460,VLX201811052366,4881,551
VLX201811052533,VLX201811052468,684,841
VLX201811052275,VLX201811051707,1122,81.95
VLX201811052509,VLX201811052438,316,167.7
VLX201811052169,VLX201811051812,38949,149.9
VLX201811052228,VLX201811051727,5304,1482
VLX201811052298,VLX201811052068,1469,4507
VLX201811052276,VLX201811052134,279,94.53
VLX201811052406,VLX201811052355,312,4279
VLX201811052166,VLX201811051958,911,106.8
VLX201811051853,VLX201811051678,680,6620
VLX201811052234,VLX201811052050,2213,22.42
VLX201811052306,VLX201811052082,1764,5510
VLX201811052219,VLX201811052133,5446,25.12
VLX201811052328,VLX201811052054,4871,209.1
VLX201811052463,VLX201811052374,165,1160
VLX201811052285,VLX201811052017,462,206.8
VLX201811052265,VLX201811051753,572,12900
VLX201811052488,VLX201811051342,554,506
VLX201811052219,VLX201811051807,5446,25.12
VLX201811052532,VLX20181105905,5037,268.2
VLX201811052135,VLX201811051653,398,197.9
VLX201811052087,VLX201811051650,288,176.9
VLX201811052189,VLX201811051948,360,1769
VLX201811052136,VLX201811051624,608,50.71
VLX201811052214,VLX201811051865,720,52.08
VLX201811052097,VLX201811051728,1207,2634
VLX201811052299,VLX201811052028,16275,551
VLX201811052145,VLX201811051878,184,57300
VLX201811052295,VLX201811051614,352,64.33
VLX201811052345,VLX20181105682,138,4859
VLX201811052103,VLX201811051925,432,67.85
VLX201811052319,VLX201811052075,232,89.5
VLX201811052316,VLX201811051701,153,2438
VLX201811052393,VLX201811052364,74,2582
VLX201811052274,VLX201811051836,864,57.73
VLX201811052216,VLX201811052007,20709,268.3
VLX201811052531,VLX201811052445,177,1030
VLX201811052246,VLX201811052047,1934,25.19
VLX201811052505,VLX201811052400,246,434.7
VLX201811051931,VLX201811051619,3191,20.16
VLX201811052305,VLX201811051737,950,47.13
VLX201811052536,VLX201811051047,57,7650
VLX201811052522,VLX20181105247,1497,278.8
VLX201811052484,VLX20181105403,319,690
VLX201811052241,VLX201811052010,10528,579
VLX201811052490,VLX201811052429,191,4184
VLX201811052146,VLX201811051913,24,17000
VLX201811052160,VLX201811051893,1650,72.91
VLX201811052308,VLX201811051689,260,106.3
VLX201811052295,VLX201811052040,352,64.33
VLX201811052513,VLX201811052441,5083,259.1
VLX201811052167,VLX201811051905,482,157.5
VLX201811052212,VLX201811051733,132,101.4
VLX201811052253,VLX201811051685,48,95.08
VLX201811052092,VLX201811051718,3181,12.43
VLX201811052098,VLX201811051589,120,72.27
VLX201811052289,VLX201811051801,95,24800
VLX201811052508,VLX201811052398,398,2423
VLX201811052322,VLX201811052071,884,5690
VLX201811052501,VLX201811052419,807,1812
VLX201811052498,VLX201811052452,1156,262.7
VLX201811052303,VLX201811052117,477,5.06
VLX201811052180,VLX201811051947,833,32.95
VLX201811052105,VLX201811051606,1484,27.77
VLX201811052346,VLX201811051425,950,4507
VLX201811052100,VLX201811051642,19224,194.3
VLX201811052107,VLX201811051611,32,220.9
VLX201811052287,VLX201811051635,554,83.88
VLX201811052157,VLX201811051607,985,82.6
VLX201811052236,VLX201811051988,924,4333
VLX201811052478,VLX201811052360,3899,144.3
VLX201811052267,VLX201811051679,870,139.9
VLX201811052243,VLX201811052009,1164,106
VLX201811052510,VLX201811052422,3998,175.7
VLX201811052497,VLX20181105804,469,522
VLX201811052104,VLX201811051957,1118,78.2
VLX201811052149,VLX201811051782,88,229.8
VLX201811052291,VLX201811051779,408,239.5
VLX201811052102,VLX201811051969,434,9580
VLX201811052516,VLX201811052447,1406,922
VLX201811052482,VLX20181105690,1,154.3
VLX201811052312,VLX201811051796,1143,11.81
VLX201811052461,VLX2018110528,48990,59.5
VLX201811052491,VLX20181105751,454,876
VLX201811052344,VLX20181105802,12204,149.9
VLX201811052211,VLX201811051735,3573,1489
VLX201811052520,VLX20181105455,72,1200
VLX201811052273,VLX201811051764,188,199.9
VLX201811052462,VLX20181105851,543,6620
VLX201811052184,VLX201811051742,237,357.8
VLX201811052169,VLX201811051950,38949,149.9
VLX201811052331,VLX201811051781,1014,225.2
VLX201811052471,VLX20181105425,70,879
VLX201811052283,VLX201811052001,701,138.2
VLX201811052269,VLX201811051757,1320,4272
VLX201811052512,VLX201811052411,24,306
VLX201811052190,VLX201811051886,3903,21.81
VLX201811052262,VLX201811051788,1302,4932
VLX201811052167,VLX201811051803,482,157.5
VLX201811052115,VLX201811051967,471,192.1
VLX201811052350,VLX201811052339,1145,613
VLX201811052528,VLX20181105706,956,2328
VLX201811052166,VLX201811051696,911,106.8
VLX201811052329,VLX201811052070,1056,54.56
VLX201811052337,VLX201811052333,567,867
VLX201811052314,VLX201811052119,2652,41.21
VLX201811052483,VLX201811052388,1650,3316
VLX201811052215,VLX201811051625,3339,27.44
VLX201811051854,VLX201811051756,66,63.33
VLX201811052228,VLX201811052118,5304,1482
VLX201811052113,VLX201811051914,624,69.44
VLX201811052281,VLX201811051748,2773,11.57
VLX201811052107,VLX201811051910,32,220.9
VLX201811052101,VLX201811051604,368,168.2
VLX201811052271,VLX201811052090,3128,20.37
VLX201811052137,VLX201811051694,1218,71.11
VLX201811052175,VLX201811051939,1793,25.26
VLX201811052289,VLX201811052065,95,24800
VLX201811052173,VLX201811051745,4931,12.38
VLX201811052146,VLX201811051661,24,17000
VLX201811052224,VLX201811051819,176,129.9
VLX201811051928,VLX201811051626,522,177.2
VLX201811052329,VLX201811051823,1056,54.56
VLX201811052521,VLX201811052437,1172,2460
VLX201811052272,VLX201811052063,715,111.2
VLX201811052137,VLX201811051952,1218,71.11
VLX201811052482,VLX201811052368,1,154.3
VLX201811052271,VLX201811051674,3128,20.37
VLX201811052486,VLX20181105326,4116,802
VLX201811052291,VLX201811052120,408,239.5
VLX201811052266,VLX201811052037,693,108.4
VLX201811052534,VLX201811052457,1017,613
VLX201811052327,VLX201811051597,944,109.6
VLX201811051981,VLX201811051704,1002,94.91
VLX201811052256,VLX201811051994,7438,13.63
VLX201811052247,VLX201811052081,2780,15.71
VLX201811052145,VLX201811051721,184,57300
VLX201811052176,VLX201811051966,168,115.8
VLX201811051844,VLX201811051710,2159,45.64
VLX201811052142,VLX201811051723,9345,81.82
VLX201811052412,VLX20181105236,2342,167.9
VLX201811052260,VLX201811052130,2100,48.83
VLX201811052220,VLX201811052005,86,23.8
VLX201811052500,VLX201811051391,3616,579
VLX201811052409,VLX201811052392,130,4676
VLX201811052294,VLX201811051693,5,450.6
VLX201811052179,VLX201811051923,1748,2632
VLX201811052102,VLX201811051593,434,9580
VLX201811051986,VLX201811051848,13680,687
VLX201811052174,VLX201811051906,2088,37.67
VLX201811052237,VLX201811051617,1693,71.95
VLX201811052323,VLX201811052004,930,101.5
VLX201811052221,VLX201811051999,1607,50.39
VLX201811052210,VLX201811051951,117,76.03
VLX201811052237,VLX201811052003,1693,71.95
VLX201811052144,VLX201811051903,279,276.9
VLX201811052208,VLX201811051940,138,202.9
VLX201811052194,VLX201811051876,1260,96.82
VLX201811052319,VLX201811051591,232,89.5
VLX201811052193,VLX201811051979,1,45.48
VLX201811052303,VLX201811051829,477,5.06
VLX201811052426,VLX20181105505,150,4272
VLX201811052187,VLX201811051630,448,95.77
VLX201811051983,VLX201811051666,1584,45.95
VLX201811052242,VLX201811052074,414,7870
VLX201811052484,VLX201811052356,319,690
VLX201811052257,VLX201811052014,162,33.16
VLX201811052249,VLX201811052059,189,56.65
VLX201811052421,VLX201811052375,209,219.7
VLX201811052524,VLX201811051056,720,449.5
VLX201811052223,VLX201811052058,1008,4648
VLX201811052093,VLX201811051870,463,8840
VLX201811052427,VLX201811052390,158,1236
VLX201811052244,VLX201811052121,520,180.4
VLX201811052507,VLX201811052456,814,1196
VLX201811052309,VLX201811052067,1960,68.33
VLX201811052141,VLX201811051631,80,89.83
VLX201811052202,VLX201811051758,1001,103.8
VLX201811052116,VLX201811051888,322,43.29
VLX201811052218,VLX201811052046,2251,46.66
VLX201811052311,VLX201811051752,6565,3.02
VLX201811052485,VLX201811051145,173,2284
VLX201811052516,VLX20181105228,1406,922
VLX201811052140,VLX201811051894,268,309.1
VLX201811052251,VLX201811052086,137734,59.5
VLX201811052488,VLX201811052401,554,506
VLX201811052330,VLX201811051832,3185,9.29
VLX201811052135,VLX201811051871,398,197.9
VLX201811052199,VLX201811051777,21228,315.7
VLX201811052394,VLX20181105124,567,321.4
VLX201811052475,VLX20181105265,832,610
VLX201811052194,VLX201811051688,1260,96.82
VLX201811052253,VLX201811052043,48,95.08
VLX201811052512,VLX20181105699,24,306
VLX201811052478,VLX20181105911,3899,144.3
VLX201811052458,VLX201811051175,83,5770
VLX201811052244,VLX201811051799,520,180.4
VLX201811052191,VLX201811051670,935,65.94
VLX201811052485,VLX201811052432,173,2284
VLX201811052513,VLX20181105483,5083,259.1
VLX201811052232,VLX201811051833,560,22200
VLX201811052327,VLX201811052027,944,109.6
VLX201811052203,VLX201811051971,3066,1876
VLX201811052106,VLX201811051933,45,23400
VLX201811052499,VLX201811052436,240,2374
VLX201811052185,VLX201811051659,12262,4.21
VLX201811052346,VLX201811052334,950,4507
VLX201811052321,VLX201811051645,260,6240
VLX201811052294,VLX201811051997,5,450.6
VLX201811052261,VLX201811052072,3757,802
VLX201811052220,VLX201811051663,86,23.8
VLX201811052293,VLX201811052044,2880,4428
VLX201811052238,VLX201811051649,48,1070
VLX201811052290,VLX201811051654,1540,3234
VLX201811052474,VLX201811052353,12,1958
VLX201811051926,VLX201811051681,814,46.44
VLX201811051863,VLX201811051842,261,318.1
VLX201811051863,VLX201811051623,261,318.1
VLX201811052152,VLX201811051705,313,286.3
VLX201811052494,VLX201811051413,96,1908
VLX201811052214,VLX201811051702,720,52.08
VLX201811052158,VLX201811051767,810,79.31
VLX201811052188,VLX201811051810,16782,4.36
VLX201811052528,VLX201811052444,956,2328
VLX201811052498,VLX20181105586,1156,262.7
VLX201811052196,VLX201811051656,2610,2858
VLX201811052519,VLX201811051474,69,3415
VLX201811052300,VLX201811052109,1020,4500
VLX201811052526,VLX201811052396,303,1885
VLX201811052156,VLX201811051720,874,18.63
VLX201811052492,VLX201811051307,91,3627
VLX201811051984,VLX201811051851,24227,177.5
VLX201811052151,VLX201811051935,2010,228.8
VLX201811052301,VLX201811052127,885,91.43
VLX201811052089,VLX201811051806,948,69.75
VLX201811052123,VLX201811051904,826,75200
VLX201811052116,VLX201811051668,322,43.29
VLX201811052502,VLX201811052397,721,1542
VLX201811052535,VLX201811052453,189,4751
VLX201811052299,VLX201811051669,16275,551
VLX201811052098,VLX201811051915,120,72.27
VLX201811052345,VLX201811052335,138,4859
VLX201811052249,VLX201811051732,189,56.65
VLX201811052231,VLX201811051592,500,192.8
VLX201811052318,VLX201811052035,169,150.3
VLX201811051980,VLX201811051835,575,111.5
VLX201811052474,VLX201811051587,12,1958
VLX201811052493,VLX20181105291,1423,5690
VLX201811052222,VLX201811051818,765,64.88
VLX201811052206,VLX201811051687,500,28.18
VLX201811052260,VLX201811051712,2100,48.83
VLX201811052503,VLX201811051166,228,5200
VLX201811052229,VLX201811052018,27912,3.12
VLX201811052160,VLX201811051776,1650,72.91
VLX201811052395,VLX201811051158,3286,1638
VLX201811052473,VLX20181105549,87,639
VLX201811052497,VLX201811052417,469,522
VLX201811052178,VLX201811051889,128,312.7
VLX201811051857,VLX201811051840,960,79.57
VLX201811052187,VLX201811051954,448,95.77
VLX201811052255,VLX201811052038,550,127.5
VLX201811052268,VLX201811051743,518,69.27
VLX201811052310,VLX201811051648,744,145.6
VLX201811052407,VLX201811051455,2302,1469
VLX201811052093,VLX201811051838,463,8840
VLX201811052531,VLX201811051340,177,1030
VLX201811052277,VLX201811052019,422,198
VLX201811052309,VLX201811051750,1960,68.33
VLX201811052230,VLX201811051770,356,146.6
VLX201811052472,VLX2018110521,1579,725
VLX201811052252,VLX201811051673,1104,88.76
VLX201811052195,VLX201811051908,271,43600
VLX201811052222,VLX201811052012,765,64.88
VLX201811052314,VLX201811051640,2652,41.21
VLX201811052525,VLX201811052405,323,1490
VLX201811052230,VLX201811052026,356,146.6
VLX201811052165,VLX201811051960,285,63.67
VLX201811052280,VLX201811052048,2400,27.89
VLX201811052140,VLX201811051596,268,309.1
VLX201811052508,VLX201811051270,398,2423
VLX201811052192,VLX201811051895,2438,3235
VLX201811052286,VLX201811052066,401,314
VLX201811052114,VLX201811051924,990,60.29
VLX201811052144,VLX201811051700,279,276.9
VLX201811052190,VLX201811051706,3903,21.81
VLX201811052520,VLX201811052454,72,1200
VLX201811052317,VLX201811051677,4058,923
VLX201811052193,VLX201811051646,1,45.48
VLX201811052204,VLX201811051964,19416,5.12
VLX201811052307,VLX201811052013,1598,36.03
VLX201811052268,VLX201811051991,518,69.27
VLX201811052316,VLX201811052110,153,2438
VLX201811052234,VLX201811051647,2213,22.42
VLX201811052148,VLX201811051697,650,5800
VLX201811052529,VLX20181105248,15,5270
VLX201811052097,VLX201811051897,1207,2634
VLX201811052255,VLX201811051595,550,127.5
VLX201811052178,VLX201811051665,128,312.7
VLX201811052033,VLX201811051968,1185,77.95
VLX201811052395,VLX201811052371,3286,1638
VLX201811052514,VLX201811051179,114,337.5
VLX201811052186,VLX201811051972,3298,3539
VLX201811052091,VLX201811051911,125,185.6
VLX201811052182,VLX201811051918,990,33.02
VLX201811052155,VLX201811051692,6336,7.08
VLX201811052505,VLX201811051141,246,434.7
VLX201811052225,VLX201811052077,336,17300
VLX201811052423,VLX201811052386,1163,488.1
VLX201811051853,VLX201811051845,680,6620
VLX201811051985,VLX201811051847,384,115.3
VLX201811052204,VLX201811051784,19416,5.12
VLX201811052254,VLX201811052084,290,136.9
VLX201811051987,VLX201811051859,1617,645
VLX201811052470,VLX201811051019,401,420.7
VLX201811052209,VLX201811051877,525,163.2
VLX201811052153,VLX201811051932,2700,30.52
VLX201811052523,VLX20181105503,1266,319.4
VLX201811052491,VLX201811052402,454,876
VLX201811052164,VLX201811051941,3162,14.48
VLX201811052521,VLX20181105399,1172,2460
VLX201811052201,VLX201811051834,7695,9.27
VLX201811052177,VLX201811051605,126,180.1
VLX201811052511,VLX20181105461,426,402.6
VLX201811052235,VLX201811051676,2556,42.93
VLX201811052275,VLX201811052021,1122,81.95
VLX201811052149,VLX201811051882,88,229.8
VLX201811051983,VLX201811051862,1584,45.95
VLX201811052510,VLX20181105463,3998,175.7
VLX201811052483,VLX20181105306,1650,3316
VLX201811052183,VLX201811051874,7032,79.72
VLX201811052477,VLX201811052381,1345,1627
VLX201811052506,VLX201811051035,600,366
VLX201811052247,VLX201811051655,2780,15.71
VLX201811051929,VLX201811051684,2257,3090
VLX201811051927,VLX201811051852,882,70.2
VLX201811052205,VLX201811051919,95,73.1
VLX201811052409,VLX20181105428,130,4676
VLX201811052489,VLX201811052430,320,1884
VLX201811052408,VLX20181105722,130,2651
VLX201811052221,VLX201811051761,1607,50.39
VLX201811052413,VLX2018110555,189,1308
VLX201811052408,VLX201811052372,130,2651
VLX201811052273,VLX201811052060,188,199.9
VLX201811052460,VLX20181105462,4881,551
VLX201811052158,VLX201811051902,810,79.31
VLX201811052276,VLX201811051628,279,94.53
VLX201811052347,VLX201811052336,3055,252.2
VLX201811052326,VLX201811051791,517,114.7
VLX201811052479,VLX20181105968,619,966
VLX201811052207,VLX201811051962,1054,87.5
VLX201811052252,VLX201811052030,1104,88.76
VLX201811052292,VLX201811051746,7030,1886
VLX201811052518,VLX201811052455,714,2634
VLX201811052162,VLX201811051872,847,613
VLX201811052143,VLX201811051713,773,1638
VLX201811052229,VLX201811051763,27912,3.12
VLX201811052493,VLX201811052403,1423,5690
VLX201811052139,VLX201811051867,1230,15.52
VLX201811052198,VLX201811051881,912,76.59
VLX201811052235,VLX201811052088,2556,42.93
VLX201811052518,VLX201811051398,714,2634
VLX201811052527,VLX201811052442,7556,645
VLX201811051844,VLX201811051839,2159,45.64
VLX201811052270,VLX201811051698,2382,82.25
VLX201811052286,VLX201811051715,401,314
VLX201811052112,VLX201811051629,1120,83.53
VLX201811052509,VLX2018110560,316,167.7
VLX201811051984,VLX201811051610,24227,177.5
